{
	"pbc_internal":{
		"name":"PBC Secure Message",
		"logo":"graphics/pbc/icons/intel/pbc_intelligence.png",
		"icon":"graphics/pbc/icons/intel/pbc_intelligence.png",
		"image":"graphics/pbc/factions/pbc.png",
		"sound":"ui_channel_comm_secure",
		"faction":"pbc",
		"type":"Intelligence Report",
		"shortType":"Intel",
	},
}