{
	"pbc_pegasus_base":{
		"defaultName":"Asteroid Base", # used if name=null in addCustomEntity()
		"defaultRadius":70, # used if radius<0 in addCustomEntity()
		"customDescriptionId":"orbital_station_default",
		"interactionImage":"graphics/pbc/illustrations/pegasus_base.png",
		"icon":"graphics/icons/station0.png",
		"iconWidth":20,
		"iconHeight":20,
		"sprite":"graphics/pbc/stations/pegasus_base.png",
		"spriteWidth":90,
		"spriteHeight":90,
		"renderShadow":true,
		"useLightColor":true,
		"showInCampaign":true,
		"showIconOnMap":true,
		"showNameOnMap":false,
		"scaleNameWithZoom":false,
		"scaleIconWithZoom":true,
		"tags":["station"],
		"layers":[STATIONS],
	},
	"pbc_research_facility":{
		"defaultName":"Testing facility", # used if name=null in addCustomEntity()
		"defaultRadius":70, # used if radius<0 in addCustomEntity()
		"customDescriptionId":"orbital_station_default",
		"interactionImage":"graphics/illustrations/comm_relay.jpg",
		"icon":"graphics/icons/station0.png",
		"iconWidth":20,
		"iconHeight":20,
		"sprite":"graphics/pbc/stations/research_base.png",
		"spriteWidth":70,
		"spriteHeight":90,
		"renderShadow":true,
		"useLightColor":true,
		"showInCampaign":true,
		"showIconOnMap":true,
		"showNameOnMap":false,
		"scaleNameWithZoom":false,
		"scaleIconWithZoom":true,
		"tags":["station"],
		"layers":[STATIONS],
	}
}