{
	"PBC":{
		"engineColor":[200,180,55,255],
		"contrailParticleSizeMult":4,
		"contrailParticleDuration":1,
		"contrailParticleFinalSizeMult":2.5,
		"contrailMaxSpeedMult":0.5f,
		"contrailAngularVelocityMult":0f,
		"contrailColor":[222,205,45,21],
		"type":"GLOW" # GLOW or SMOKE
	}
}

