{
	"PBC":{
		"hyperspaceJitterColor":[255,145,75,200],
		"baseCampaignExplosionColor":[255,145,75,255],
		"baseCombatExplosionColor":[255,145,75,255],
		"fighterRepairFlickerColor":[140,255,75,255],
		"weaponDisabledExplosionColor":[205,175,75,255],
		"shieldRingColor":[255,255,255,255],
		"shieldInnerColor":[115,135,255,75],
		"fluxVentCoreColor":[255,255,255,255],
		"fluxVentFringeColor":[95,50,155,255],
		"engineLoopSet":"engine_loop", 					# id of entry in sounds.json
		"engineAccelerateSet":"engine_accelerate",		# id of entry in sounds.json
		"empLoopSet":"emp_loop",						# id of entry in sounds.json
		"fluxLoopSet":"flux_loop",						# id of entry in sounds.json
		"ventFluxSet":"vent_flux",						# id of entry in sounds.json
		"shieldBurnoutSet":"shield_burnout",			# id of entry in sounds.json
		"shieldLowerSet":"shield_lower",				# id of entry in sounds.json
		"shieldRaiseSet":"shield_raise",				# id of entry in sounds.json
		"explosionShipSet":"explosion_ship",			# id of entry in sounds.json
		"damageDecalSheet":"graphics/damage/damage_decal_sheet_base.png",
		"damageDecalGlowSheet":"graphics/damage/damage_decal_sheet_glow.png",
	}
}



