{
	"pbc_lance_electric":[ 
		{"file":"sounds/pbc/sfx_energy/lance_electric.ogg","pitch":1,"volume":0.85}
	],
	"pbc_lance_stasis":[ 
		{"file":"sounds/sfx_wpn_energy/high_intens_laser_loop.ogg","pitch":0.5,"volume":2.25}
	],
	"pbc_lance_stasis2":[ 
		{"file":"sounds/sfx_wpn_energy/high_intens_laser_loop.ogg","pitch":0.6,"volume":2.1}
	],
	"pbc_lance_destabilizer":[ 
		{"file":"sounds/sfx_wpn_energy/laser_loop.ogg","pitch":0.8,"volume":2.7}
	],
	"pbc_phase_inhibitor":[ 
		{"file":"sounds/sfx_systems/phase_cloak_collision.ogg","pitch":0.8,"volume":2.7}
	],
	"pbc_vent_plasma":[ 
		{"file":"sounds/sfx_flux/flux_vent.ogg","pitch":1.2,"volume":0.5},
	],

	"pbc_ionized_shield_loop":[ 
		{"file":"sounds/pbc/sfx_energy/lance_electric.ogg","pitch":0.7,"volume":0.8}
	],

	"pbc_smart_charge_fire":[ 
		{"file":"sounds/pbc/sfx_energy/assault_cannon2.ogg","pitch":1,"volume":0.03},
		{"file":"sounds/pbc/sfx_energy/assault_cannon2.ogg","pitch":1.07,"volume":0.015},
		{"file":"sounds/pbc/sfx_energy/assault_cannon2.ogg","pitch":0.93,"volume":0.03}
	],
	
	"pbc_heavy_railgun_fire":[
		{"file":"sounds/pbc/sfx_energy/160880_thehadnot_bfg-laser.ogg","pitch":0.93,"volume":0.1}
	],

	"pbc_fast_repeater_fire":[ 
		{"file":"sounds/pbc/sfx_energy/151022__bubaproducer__laser-shot-silenced.ogg","pitch":1,"volume":0.5},
		{"file":"sounds/pbc/sfx_energy/151022__bubaproducer__laser-shot-silenced.ogg","pitch":1.1,"volume":0.5},
		{"file":"sounds/pbc/sfx_energy/151022__bubaproducer__laser-shot-silenced.ogg","pitch":0.9,"volume":0.5},
		{"file":"sounds/pbc/sfx_energy/151022__bubaproducer__laser-shot-silenced.ogg","pitch":0.8,"volume":0.5},
	],
	
	"pbc_ion_blaster_fire":[ 
		{"file":"sounds/pbc/sfx_energy/257232__javierzumer__retro-shot-blaster.ogg","pitch":0.9,"volume":0.75},
	],
	
	"pbc_medium_blaster_fire":[ 
		{"file":"sounds/pbc/sfx_energy/317136__bird-man__sci-fi-gun-shot.ogg","pitch":1,"volume":0.5},
		{"file":"sounds/pbc/sfx_energy/317136__bird-man__sci-fi-gun-shot.ogg","pitch":1.05,"volume":0.6},
		{"file":"sounds/pbc/sfx_energy/317136__bird-man__sci-fi-gun-shot.ogg","pitch":1.1,"volume":0.5},
	],
}







