id,variant,fleet pts,quality,hyperdrive,formation,num,role,refit,base value,Column,Column [1],Column [2],Column [3],Column [4],Column [5],Column [6],Column [7],Column [8],Column [9],Column [10],Column [11],number
pbc_achlys_ftr_wing,pbc_achlys_ftr_Fighter,7,0.6,,CLAW,3,ASSAULT,15,14000,,,,,,,,,,,,,
pbc_hybris_ftr_wing,pbc_hybris_ftr_Fighter,9,0.7,,V,4,FIGHTER,15,22000,,,,,,,,,,,,,
pbc_hypnos_ftr_wing,pbc_hypnos_ftr_Fighter,8,0.6,,CLAW,3,ASSAULT,15,20000,,,,,,,,,,,,,